{
    "Categories": "Qt;KDE;X-KDE-information;",
    "KPlugin": {
        "BugReportUrl": "https://bugs.kde.org/enter_bug.cgi?product=kinfocenter&component=general",
        "Description": "Network interface information",
        "Description[ar]": "معلومات واجهات الشّبكات",
        "Description[az]": "Şəbəkə interfeysləri məlumatı",
        "Description[bg]": "Данни за мрежовите интерфейси",
        "Description[ca@valencia]": "Informació de la interfície de xarxa",
        "Description[ca]": "Informació de la interfície de xarxa",
        "Description[cs]": "Informace o síťových rozhraních",
        "Description[de]": "Informationen zu Netzwerkschnittstellen",
        "Description[en_GB]": "Network interface information",
        "Description[eo]": "Informoj pri retinterfaco",
        "Description[es]": "Información sobre interfaces de red",
        "Description[et]": "Võrguliideste info",
        "Description[eu]": "Sare-interfazeen informazioa",
        "Description[fi]": "Verkkoliitäntöjen tiedot",
        "Description[fr]": "Informations concernant les interfaces de réseau",
        "Description[ia]": "Information de interfacie de rete",
        "Description[id]": "Informasi antarmuka jaringan",
        "Description[is]": "Upplýsingar um nettengi",
        "Description[it]": "Informazioni sulle interfacce di rete",
        "Description[ja]": "ネットワークインターフェースの情報",
        "Description[ka]": "ინფორმაცია ინტერფეისის შესახებ",
        "Description[ko]": "네트워크 인터페이스 정보",
        "Description[lt]": "Informacija apie tinklo sąsajas",
        "Description[nl]": "Netwerkinterface-informatie",
        "Description[nn]": "Informasjon om nettverksgrensesnitt",
        "Description[pl]": "Szczegóły o interfejsach sieciowych",
        "Description[pt]": "Informações sobre as interfaces de rede",
        "Description[pt_BR]": "Informações da interface de rede",
        "Description[ro]": "Informații despre interfețele de rețea",
        "Description[ru]": "Сведения о сетевых интерфейсах",
        "Description[sk]": "Informácie o sieťových rozhraniach",
        "Description[sl]": "Podatki o omrežnih vmesnikih",
        "Description[sv]": "Information om nätverksgränssnitt",
        "Description[ta]": "பிணைய இடைமுகப்பு விவரங்கள்",
        "Description[tr]": "Ağ arayüz bilgisi",
        "Description[uk]": "Інформація щодо інтерфейсів мережі",
        "Description[vi]": "Thông tin giao diện mạng",
        "Description[x-test]": "xxNetwork interface informationxx",
        "Description[zh_CN]": "网络接口信息",
        "Description[zh_TW]": "網路介面資訊",
        "Icon": "network-card",
        "Name": "Network Interfaces",
        "Name[af]": "Netwerk Koppelvlakke",
        "Name[ar]": "واجهات الشّبكات",
        "Name[as]": "নে'টৱৰ্ক সংযোগমাধ্যম",
        "Name[az]": "Şəbəkə İnterfeysləri",
        "Name[be@latin]": "Sietkavyja interfejsy",
        "Name[be]": "Сеткавыя інтэрфейсы",
        "Name[bg]": "Мрежа",
        "Name[bn]": "নেটওয়ার্ক ইন্টারফেস",
        "Name[bn_IN]": "নেটওয়ার্ক ইন্টারফেস",
        "Name[br]": "Etrefasoù Rouedad",
        "Name[bs]": "Mrežna sučelja",
        "Name[ca@valencia]": "Interfícies de xarxa",
        "Name[ca]": "Interfícies de xarxa",
        "Name[cs]": "Síťová rozhraní",
        "Name[csb]": "Sécowé interfejsë",
        "Name[cy]": "Rhyngwynebau Rhwydwaith",
        "Name[da]": "Netværksgrænseflade",
        "Name[de]": "Netzwerkschnittstellen",
        "Name[el]": "Διεπαφές δικτύου",
        "Name[en_GB]": "Network Interfaces",
        "Name[eo]": "Retinterfacoj",
        "Name[es]": "Interfaces de red",
        "Name[et]": "Võrguliidesed",
        "Name[eu]": "Sare-interfazeak",
        "Name[fa]": "واسطهای شبکه",
        "Name[fi]": "Verkkoliitännät",
        "Name[fr]": "Interfaces réseau",
        "Name[fy]": "Netwurkynterfaces",
        "Name[ga]": "Comhéadain Líonra",
        "Name[gl]": "Interfaces de rede",
        "Name[gu]": "નેટવર્ક ઇન્ટરફેસ",
        "Name[he]": "ממשקי רשת",
        "Name[hi]": "नेटवर्क इंटरफेसेस",
        "Name[hne]": "नेटवर्क इंटरफेसेस",
        "Name[hr]": "Mrežna sučelja",
        "Name[hsb]": "Syćowe interfejsy",
        "Name[hu]": "Hálózati kártyák",
        "Name[ia]": "Interfacies de rete",
        "Name[id]": "Antarmuka Jaringan",
        "Name[is]": "Nettengi",
        "Name[it]": "Interfacce di rete",
        "Name[ja]": "ネットワークインターフェース",
        "Name[ka]": "ქსელის ინტერფეისები",
        "Name[kk]": "Желі интерфейстері",
        "Name[km]": "ចំណុច​ប្រទាក់បណ្ដាញ",
        "Name[kn]": "ಜಾಲ ಸಂಪರ್ಕತಟಗಳು (ಇಂಟರ್ಫೇಸ್)",
        "Name[ko]": "네트워크 인터페이스",
        "Name[ku]": "Navrûyên Torê",
        "Name[lt]": "Tinklo sąsajos",
        "Name[lv]": "Tīkla ierīces",
        "Name[mai]": "नेटवर्क इंटरफेसेस",
        "Name[mk]": "Мрежни интерфејси",
        "Name[ml]": "ശൃംഖലാ വിനിമയതലങ്ങള്‍",
        "Name[mr]": "संजाळ दुवे",
        "Name[ms]": "Antara Muka Rangkaian",
        "Name[nb]": "Nettverksgrensesnitt",
        "Name[nds]": "Nettwark-Koppelsteden",
        "Name[ne]": "सञ्जाल इन्टरफेस",
        "Name[nl]": "Netwerkinterfaces",
        "Name[nn]": "Nettverksgrensesnitt",
        "Name[or]": "ନେଟୱର୍କ ଅନ୍ତରାପୃଷ୍ଠ",
        "Name[pa]": "ਨੈੱਟਵਰਕ ਇੰਟਰਫੇਸ",
        "Name[pl]": "Interfejsy sieciowe",
        "Name[pt]": "Interfaces de Rede",
        "Name[pt_BR]": "Interfaces de rede",
        "Name[ro]": "Interfețe de rețea",
        "Name[ru]": "Сетевые интерфейсы",
        "Name[se]": "Fierbmelavttat",
        "Name[si]": "ජාල මුහුණත",
        "Name[sk]": "Sieťové rozhrania",
        "Name[sl]": "Omrežni vmesniki",
        "Name[sr@ijekavian]": "Мрежна сучеља",
        "Name[sr@ijekavianlatin]": "Mrežna sučelja",
        "Name[sr@latin]": "Mrežna sučelja",
        "Name[sr]": "Мрежна сучеља",
        "Name[sv]": "Nätverksgränssnitt",
        "Name[ta]": "பிணைய இடைமுகப்புகள்",
        "Name[te]": "నెట్వర్క్ ఇంటర్ ఫెస్",
        "Name[tg]": "Воситаҳои шабака",
        "Name[th]": "แผงวงจรเครือข่าย",
        "Name[tr]": "Ağ Arayüzleri",
        "Name[ug]": "تور ئارايۈزلىرى",
        "Name[uk]": "Мережеві інтерфейси",
        "Name[uz@cyrillic]": "Тармоқ интерфейслари",
        "Name[uz]": "Tarmoq interfeyslari",
        "Name[vi]": "Giao diện mạng",
        "Name[wa]": "Eterfaces rantoele",
        "Name[x-test]": "xxNetwork Interfacesxx",
        "Name[xh]": "Ujongano Lomsebenzi womnatha",
        "Name[zh_CN]": "网络接口",
        "Name[zh_TW]": "網路介面"
    },
    "X-DocPath": "kinfocenter/network.html#nic",
    "X-KDE-KInfoCenter-Category": "network_information"
}
