{
    "Categories": "Qt;KDE;X-KDE-information;",
    "KPlugin": {
        "BugReportUrl": "https://bugs.kde.org/enter_bug.cgi?product=kinfocenter&component=general",
        "Description": "Energy Consumption Statistics",
        "Description[ar]": "إحصائيّات استهلاك الطّاقة",
        "Description[az]": "Enerji sərfiyyatı statistikası",
        "Description[bg]": "Статистика на енергийно потребление",
        "Description[ca@valencia]": "Estadístiques del consum d'energia",
        "Description[ca]": "Estadístiques del consum d'energia",
        "Description[cs]": "Statistika spotřeby energie",
        "Description[de]": "Statistiken über den Energieverbrauch",
        "Description[en_GB]": "Energy Consumption Statistics",
        "Description[eo]": "Statistiko pri Energio-Konsumo",
        "Description[es]": "Estadísticas de consumo de energía",
        "Description[et]": "Energiatarbe statistika",
        "Description[eu]": "Energia kontsumoaren estatistikak",
        "Description[fi]": "Virrankulutuksen tilastot",
        "Description[fr]": "Statistiques de consommation d'énergie",
        "Description[ia]": "Statistica de consumo de energia",
        "Description[id]": "Statistik Konsumsi Energi",
        "Description[is]": "Tölfræði um orkunotkun",
        "Description[it]": "Statistiche sul consumo di energia",
        "Description[ja]": "エネルギー消費の統計",
        "Description[ka]": "ენერგიის მოხმარების სტატისტიკა",
        "Description[ko]": "에너지 소모 통계",
        "Description[lt]": "Energijos sunaudojimo statistika",
        "Description[nl]": "Statistiek over energiegebruik",
        "Description[nn]": "Statistikk over energiforbruk",
        "Description[pl]": "Statystka poboru energii",
        "Description[pt]": "Estatísticas do Consumo de Energia",
        "Description[pt_BR]": "Estatística do consumo de energia",
        "Description[ro]": "Statistici de consum al energiei",
        "Description[ru]": "Статистика энергопотребления",
        "Description[sk]": "Štatistika o spotrebe energie",
        "Description[sl]": "Statistika porabe energije",
        "Description[sv]": "Statistik över energiförbrukning",
        "Description[ta]": "ஆற்றல் பயன்பாட்டு குறித்த புள்ளிவிவரங்கள்",
        "Description[tr]": "Enerji Tüketimi İstatistikleri",
        "Description[uk]": "Статистика споживання електроенергії",
        "Description[vi]": "Thống kê tiêu thụ năng lượng",
        "Description[x-test]": "xxEnergy Consumption Statisticsxx",
        "Description[zh_CN]": "电量消耗统计信息",
        "Description[zh_TW]": "能源消耗統計",
        "FormFactors": [
            "desktop",
            "tablet",
            "handset"
        ],
        "Icon": "battery",
        "Name": "Energy",
        "Name[ar]": "الطاقة",
        "Name[az]": "Enerji sərfiyyatı",
        "Name[bg]": "Енергия",
        "Name[ca@valencia]": "Energia",
        "Name[ca]": "Energia",
        "Name[cs]": "Energie",
        "Name[da]": "Strøm",
        "Name[de]": "Energie",
        "Name[el]": "Ενέργεια",
        "Name[en_GB]": "Energy",
        "Name[eo]": "Energio",
        "Name[es]": "Energía",
        "Name[et]": "Energia",
        "Name[eu]": "Energia",
        "Name[fi]": "Virta",
        "Name[fr]": "Énergie",
        "Name[hu]": "Energiafogyasztás",
        "Name[ia]": "Energia",
        "Name[id]": "Energi",
        "Name[is]": "Orka",
        "Name[it]": "Energia",
        "Name[ja]": "エネルギー",
        "Name[ka]": "ენერგია",
        "Name[ko]": "에너지",
        "Name[lt]": "Maitinimas",
        "Name[nl]": "Energie",
        "Name[nn]": "Energibruk",
        "Name[pa]": "ਊਰਜਾ",
        "Name[pl]": "Energia",
        "Name[pt]": "Energia",
        "Name[pt_BR]": "Energia",
        "Name[ro]": "Energie",
        "Name[ru]": "Энергопотребление",
        "Name[sk]": "Energia",
        "Name[sl]": "Energija",
        "Name[sv]": "Energi",
        "Name[ta]": "மின்னாற்றல்",
        "Name[tr]": "Enerji",
        "Name[uk]": "Живлення",
        "Name[vi]": "Năng lượng",
        "Name[x-test]": "xxEnergyxx",
        "Name[zh_CN]": "电量",
        "Name[zh_TW]": "電量"
    },
    "X-KDE-KInfoCenter-Category": "basic_information",
    "X-KDE-Keywords": "Battery,Energy,Statistics,History,Power",
    "X-KDE-Keywords[ar]": "Battery,Energy,Statistics,History,Power,بطارية,طاقة,إحصائيات,احصائيات,تأريخ,تاريخ",
    "X-KDE-Keywords[ast]": "Batería,Enerxía,Estadístiques,Historial",
    "X-KDE-Keywords[az]": "Battery,Energy,Statistics,History,Power,batareya,akkumlyator,statistika,enerji,enerji sərfiyyatı,elektrik qidalanması,tarixçə,jurnal,qidalanma",
    "X-KDE-Keywords[ca@valencia]": "Bateria,Energia,Estadístiques,Historial,Potència",
    "X-KDE-Keywords[ca]": "Bateria,Energia,Estadístiques,Historial,Potència",
    "X-KDE-Keywords[cs]": "Baterie,Energie,Statistika,Historie,Napájení",
    "X-KDE-Keywords[da]": "Batteri,energi,strøm,statistik,historik",
    "X-KDE-Keywords[de]": "Akku,Energie,Statistik,Verlauf",
    "X-KDE-Keywords[el]": "Μπαταρία,Ενέργεια,Στατιστικά,Ιστορικό,Ισχύς",
    "X-KDE-Keywords[en_GB]": "Battery,Energy,Statistics,History,Power",
    "X-KDE-Keywords[es]": "Batería,Energía,Estadísticas,Historial,Consumo",
    "X-KDE-Keywords[et]": "aku,energia,statistika,ajalugu,toide",
    "X-KDE-Keywords[eu]": "Bateria,Energia,Estatistikak,Historia,Indarra",
    "X-KDE-Keywords[fi]": "Battery,Energy,Statistics,History,Power,Akku,Energia,Tilastot,Historia,Virta",
    "X-KDE-Keywords[fr]": "Batterie, Énergie, Statistiques, Historique, Alimentation",
    "X-KDE-Keywords[gl]": "batería,enerxía,estatísticas,historia,histórico,historial,rexistro,corrente",
    "X-KDE-Keywords[he]": "Battery,Energy,Statistics,History,Power,סוללה,אנרגיה,סטטיסטיקה,היסטוריה,חשמל",
    "X-KDE-Keywords[hu]": "Telep,Energia,Statisztika,Előzmény,Energiakezelés",
    "X-KDE-Keywords[ia]": "Batteria,Energia,Statistica,Historia,Potentia",
    "X-KDE-Keywords[id]": "Baterai,Energi,Statistik,Histori,Daya",
    "X-KDE-Keywords[it]": "Batteria,Energia,Statistiche,Storico,Alimentazione",
    "X-KDE-Keywords[ja]": "バッテリ,エネルギー,統計,履歴,電源",
    "X-KDE-Keywords[ko]": "Battery,Energy,Statistics,History,Power,배터리,에너지,통계,전원,전력",
    "X-KDE-Keywords[lt]": "Akumuliatorius,Energija,Statistika,Istorija,Maitinimas,Baterija,Žurnalas,Zurnalas",
    "X-KDE-Keywords[nb]": "Batteri,Energi,Statistikk,Historie,Effekt",
    "X-KDE-Keywords[nl]": "Batterij,Statistiek,Geschiedenis,Energie",
    "X-KDE-Keywords[nn]": "batteri,energi,statistikk,historie,straum,effekt",
    "X-KDE-Keywords[pa]": "ਬੈਟਰੀ,ਐਨਰਜੀ,ਊਰਜਾ,ਅੰਕੜੇ,ਅਤੀਤ,ਪਾਵਰ,ਊਰਜਾ",
    "X-KDE-Keywords[pl]": "Bateria,Energia,Statystyka,Historia,Zasilanie",
    "X-KDE-Keywords[pt]": "Bateria,Energia,Estatísticas,Histórico,Potência",
    "X-KDE-Keywords[pt_BR]": "Bateria,Energia,Estatística,Histórico,Potência",
    "X-KDE-Keywords[ro]": "acumulator,energie,baterie,statistici,istoric,alimentare",
    "X-KDE-Keywords[ru]": "Battery,Energy,Statistics,History,Power,батарея,аккумулятор,статистика,энергия,энергопотребление,электропитание,история,журнал,питание",
    "X-KDE-Keywords[sk]": "Batéria,Energia,Štatistika,História,Napájanie",
    "X-KDE-Keywords[sl]": "Baterija,Energija,Statistika,Zgodovina,Moč,Poraba",
    "X-KDE-Keywords[sr@ijekavian]": "Battery,Energy,Statistics,History,Power,батерија,енергија,статистика,историјат,напајање",
    "X-KDE-Keywords[sr@ijekavianlatin]": "Battery,Energy,Statistics,History,Power,baterija,energija,statistika,istorijat,napajanje",
    "X-KDE-Keywords[sr@latin]": "Battery,Energy,Statistics,History,Power,baterija,energija,statistika,istorijat,napajanje",
    "X-KDE-Keywords[sr]": "Battery,Energy,Statistics,History,Power,батерија,енергија,статистика,историјат,напајање",
    "X-KDE-Keywords[sv]": "Batteri,Energi,Statistik,historik,Effekt",
    "X-KDE-Keywords[tr]": "Pil,Enerji,İstatistik,Geçmiş,Güç",
    "X-KDE-Keywords[uk]": "Battery,Energy,Statistics,History,Power,акумулятор,енергія,статистика,журнал,живлення,споживання,енергоспоживання",
    "X-KDE-Keywords[vi]": "Battery,Energy,Statistics,History,Power,Pin,Năng lượng,Thống kê,Lịch sử,Nguồn điện",
    "X-KDE-Keywords[x-test]": "xxBatteryxx,xxEnergyxx,xxStatisticsxx,xxHistoryxx,xxPowerxx",
    "X-KDE-Keywords[zh_CN]": "Battery,Energy,Statistics,History,Power,电池,电量,电能,能源,统计,历史,电源",
    "X-KDE-Keywords[zh_TW]": "Battery,Energy,Statistics,History,Power",
    "X-KDE-ParentApp": "kinfocenter",
    "X-KDE-Weight": 2
}
