{
    "Categories": "Qt;KDE;X-KDE-information;",
    "KPlugin": {
        "BugReportUrl": "https://bugs.kde.org/enter_bug.cgi?product=kinfocenter&component=general",
        "Description": "Advanced CPU Information",
        "Description[ar]": "معلومات متقدمة عن المعالج",
        "Description[az]": "Əlavə CPU məlumatı",
        "Description[bg]": "Разширена информация за процесора",
        "Description[ca@valencia]": "Informació avançada de la CPU",
        "Description[ca]": "Informació avançada de la CPU",
        "Description[cs]": "Pokročilé informace o CPU",
        "Description[de]": "Erweiterte Prozessor-Informationen",
        "Description[en_GB]": "Advanced CPU Information",
        "Description[eo]": "Altnivelaj CPU-Informoj",
        "Description[es]": "Información avanzada de la CPU",
        "Description[et]": "Protsessori lisateave",
        "Description[eu]": "PUZari buruzko informazio aurreratua",
        "Description[fi]": "Laajemmat keskusyksikkötiedot",
        "Description[fr]": "Informations avancées concernant les processeurs",
        "Description[ia]": "Information de CPU avantiate",
        "Description[id]": "Informasi CPU Lanjutan",
        "Description[is]": "Ítarlegar upplýsingar um örgjörva",
        "Description[it]": "Informazioni avanzate CPU",
        "Description[ja]": "高度な CPU 情報",
        "Description[ka]": "დამატებითი ინფორმაცია CPU-ის შესახებ",
        "Description[ko]": "고급 CPU 정보",
        "Description[lt]": "Išplėstinė informacija apie procesorių",
        "Description[nl]": "Geavanceerde CPU-informatie",
        "Description[nn]": "Avansert prosessor­informasjon",
        "Description[pl]": "Dalsze szczegóły o procesorze",
        "Description[pt]": "Informação Avançada do CPU",
        "Description[pt_BR]": "Informações avançadas da CPU",
        "Description[ro]": "Informații avansate procesor",
        "Description[ru]": "Дополнительные сведения о ЦП",
        "Description[sk]": "Pokročilé informácie o procesore",
        "Description[sl]": "Napredne informacije o CPE",
        "Description[sv]": "Avancerad processorinformation",
        "Description[ta]": "மேம்பட்ட சீபியூ விவரங்கள்",
        "Description[tr]": "Gelişmiş CPU Bilgisi",
        "Description[uk]": "Додаткові відомості щодо процесора",
        "Description[vi]": "Thông tin nâng cao về CPU",
        "Description[x-test]": "xxAdvanced CPU Informationxx",
        "Description[zh_CN]": "高级 CPU 信息",
        "Description[zh_TW]": "進階 CPU 資訊",
        "Icon": "preferences-devices-cpu",
        "Name": "CPU",
        "Name[ar]": "المعالج",
        "Name[az]": "CPU",
        "Name[bg]": "CPU",
        "Name[ca@valencia]": "CPU",
        "Name[ca]": "CPU",
        "Name[cs]": "CPU",
        "Name[de]": "Prozessor",
        "Name[el]": "CPU",
        "Name[en_GB]": "CPU",
        "Name[eo]": "CPU",
        "Name[es]": "CPU",
        "Name[et]": "Protsessor",
        "Name[eu]": "PUZ",
        "Name[fi]": "Keskusyksikkö",
        "Name[fr]": "Processeur",
        "Name[ia]": "CPU",
        "Name[id]": "CPU",
        "Name[is]": "Örgjörvi",
        "Name[it]": "CPU",
        "Name[ja]": "CPU",
        "Name[ka]": "CPU",
        "Name[ko]": "CPU",
        "Name[lt]": "Procesorius",
        "Name[nl]": "CPU",
        "Name[nn]": "Prosessor",
        "Name[pl]": "Procesor",
        "Name[pt]": "CPU",
        "Name[pt_BR]": "CPU",
        "Name[ro]": "Procesor",
        "Name[ru]": "ЦП",
        "Name[sk]": "CPU",
        "Name[sl]": "CPE",
        "Name[sv]": "Processor",
        "Name[ta]": "சீபியூ",
        "Name[tr]": "CPU",
        "Name[uk]": "Процесор",
        "Name[vi]": "CPU",
        "Name[x-test]": "xxCPUxx",
        "Name[zh_CN]": "CPU",
        "Name[zh_TW]": "CPU"
    },
    "TryExec": "lscpu",
    "X-KDE-KInfoCenter-Category": "device_information",
    "X-KDE-Keywords": "cpu,amd,intel,arm,instructions,cores,architecture,byte order",
    "X-KDE-Keywords[az]": "cpu,amd,intel,arm,instructions,cores,architecture,byte order,təlimatlar,nüvə,növbə,arxitektura,bayt",
    "X-KDE-Keywords[ca]": "cpu,amd,intel,arm,instruccions,nuclis,arquitectura,ordre de bytes",
    "X-KDE-Keywords[cs]": "cpu,amd,intel,arm,instrukce,jádra,architektura,pořadí bajtů",
    "X-KDE-Keywords[el]": "cpu,amd,intel,arm,instructions,πυρήνες,αρχιτεκτονική,byte order",
    "X-KDE-Keywords[en_GB]": "cpu,amd,intel,arm,instructions,cores,architecture,byte order",
    "X-KDE-Keywords[es]": "cpu,amd,intel,arm,instrucciones,cores,núcleos,arquitectura,byte order,orden de bytes",
    "X-KDE-Keywords[eu]": "cpu,puz,amd,intel,arm,aginduak,cores,nukleoak,arkitektura,byte ordena",
    "X-KDE-Keywords[fi]": "keskusyksikkö,suoritin,amd,intel,arm,ydin,ytimet,arkkitehtuuri,tavujärjestys",
    "X-KDE-Keywords[fr]": "cpu, amd, intel, arm, instructions, cœurs, architecture, ordre des octets",
    "X-KDE-Keywords[ia]": "cpu,amd,intel,arm,instructiones,cores(nucleos),architectura, ordine de byte",
    "X-KDE-Keywords[it]": "cpu,amd,intel,arm,istruzioni,core,architettura,byte order",
    "X-KDE-Keywords[ko]": "cpu,amd,intel,arm,instructions,cores,architecture,byte order,인텔,명령 집합,코어,아키텍처,바이트 순서",
    "X-KDE-Keywords[lt]": "procesorius,cpu,amd,intel,arm,nurodymai,instrukcija,instrukcijos,branduolys,branduoliai,architektūra,architektura,baitu tvarka,baitų tvarka",
    "X-KDE-Keywords[nl]": "cpu,amd,intel,arm,instructies,kernen,architectuur,byte volgorde",
    "X-KDE-Keywords[nn]": "cpu,prosessor,amd,intel,arm,instruksjonar,kjerner,arkitektur,byterekkjefølgje",
    "X-KDE-Keywords[pl]": "cpu,amd,intel,arm,instrukcje,jądra,architektura,kolejność bajtów",
    "X-KDE-Keywords[pt]": "CPU,amd,intel,arm,instruções,núcleos,arquitectura,ordem dos 'bytes'",
    "X-KDE-Keywords[pt_BR]": "cpu,amd,intel,arm,instruções,cores,arquitetura,byte order,ordem dos bits",
    "X-KDE-Keywords[sk]": "cpu,amd,intel,arm,inštrukcie,jadrá,architektúra,poradie bajtov",
    "X-KDE-Keywords[sl]": "cpe,amd,intel,arm,instrukcije,jedra,arhitektura,vrstni red",
    "X-KDE-Keywords[sv]": "processor,amd,intel,arm,instruktioner,kärnor,arkitektur,byteordning",
    "X-KDE-Keywords[uk]": "cpu,amd,intel,arm,instructions,cores,architecture,byte order,процесор,амд,інтел,арм,інструкції,ядра,архітектура,порядок байтів",
    "X-KDE-Keywords[vi]": "cpu,amd,intel,arm,instructions,cores,architecture,byte order,lệnh,lõi,kiến trúc,thứ tự byte",
    "X-KDE-Keywords[x-test]": "xxcpuxx,xxamdxx,xxintelxx,xxarmxx,xxinstructionsxx,xxcoresxx,xxarchitecturexx,xxbyte orderxx",
    "X-KDE-Keywords[zh_CN]": "cpu,amd,intel,arm,instructions,cores,architecture,byte order,中央处理器,处理器,指令集,处理器核心,核心,内核,核心数量,架构,体系,字节顺序"
}
